^D:\WORKSPACE\UNITCTESTS\EXAMPLETEST\CMAKEFILES\3.21.3\COMPILERIDCXX\CMAKECXXCOMPILERID.CPP
C:\WINDOWS\GLOBALIZATION\SORTING\SORTDEFAULT.NLS
C:\PROGRAM FILES (X86)\MICROSOFT VISUAL STUDIO\2019\COMMUNITY\VC\TOOLS\MSVC\14.29.30037\BIN\HOSTX64\X64\1033\CLUI.DLL
